ERROR - 2021-11-16 22:02:10 --> Error connecting to the database: Connection refused
CRITICAL - 2021-11-16 22:02:10 --> Unable to connect to the database.
Main connection [MySQLi]: Connection refused
#0 /var/www/html/vendor/codeigniter4/framework/system/Database/BaseConnection.php(570): CodeIgniter\Database\BaseConnection->initialize()
#1 /var/www/html/vendor/codeigniter4/framework/system/Database/BaseBuilder.php(1428): CodeIgniter\Database\BaseConnection->query('SELECT *\nFROM `...', Array, false)
#2 /var/www/html/vendor/codeigniter4/framework/system/Model.php(183): CodeIgniter\Database\BaseBuilder->get()
#3 /var/www/html/vendor/codeigniter4/framework/system/BaseModel.php(584): CodeIgniter\Model->doFindAll(0, 0)
#4 /var/www/html/app/Controllers/Pegawai.php(18): CodeIgniter\BaseModel->findAll()
#5 /var/www/html/vendor/codeigniter4/framework/system/CodeIgniter.php(802): App\Controllers\Pegawai->index()
#6 /var/www/html/vendor/codeigniter4/framework/system/CodeIgniter.php(399): CodeIgniter\CodeIgniter->runController(Object(App\Controllers\Pegawai))
#7 /var/www/html/vendor/codeigniter4/framework/system/CodeIgniter.php(317): CodeIgniter\CodeIgniter->handleRequest(NULL, Object(Config\Cache), false)
#8 /var/www/html/public/index.php(37): CodeIgniter\CodeIgniter->run()
#9 {main}
ERROR - 2021-11-16 22:11:42 --> Error connecting to the database: Connection refused
CRITICAL - 2021-11-16 22:11:42 --> Unable to connect to the database.
Main connection [MySQLi]: Connection refused
#0 /var/www/html/vendor/codeigniter4/framework/system/Database/BaseConnection.php(570): CodeIgniter\Database\BaseConnection->initialize()
#1 /var/www/html/vendor/codeigniter4/framework/system/Database/BaseBuilder.php(1428): CodeIgniter\Database\BaseConnection->query('SELECT *\nFROM `...', Array, false)
#2 /var/www/html/vendor/codeigniter4/framework/system/Model.php(183): CodeIgniter\Database\BaseBuilder->get()
#3 /var/www/html/vendor/codeigniter4/framework/system/BaseModel.php(584): CodeIgniter\Model->doFindAll(0, 0)
#4 /var/www/html/app/Controllers/Pegawai.php(18): CodeIgniter\BaseModel->findAll()
#5 /var/www/html/vendor/codeigniter4/framework/system/CodeIgniter.php(802): App\Controllers\Pegawai->index()
#6 /var/www/html/vendor/codeigniter4/framework/system/CodeIgniter.php(399): CodeIgniter\CodeIgniter->runController(Object(App\Controllers\Pegawai))
#7 /var/www/html/vendor/codeigniter4/framework/system/CodeIgniter.php(317): CodeIgniter\CodeIgniter->handleRequest(NULL, Object(Config\Cache), false)
#8 /var/www/html/public/index.php(37): CodeIgniter\CodeIgniter->run()
#9 {main}
ERROR - 2021-11-16 22:11:45 --> Error connecting to the database: Connection refused
CRITICAL - 2021-11-16 22:11:45 --> Unable to connect to the database.
Main connection [MySQLi]: Connection refused
#0 /var/www/html/vendor/codeigniter4/framework/system/Database/BaseConnection.php(570): CodeIgniter\Database\BaseConnection->initialize()
#1 /var/www/html/vendor/codeigniter4/framework/system/Database/BaseBuilder.php(1428): CodeIgniter\Database\BaseConnection->query('SELECT *\nFROM `...', Array, false)
#2 /var/www/html/vendor/codeigniter4/framework/system/Model.php(183): CodeIgniter\Database\BaseBuilder->get()
#3 /var/www/html/vendor/codeigniter4/framework/system/BaseModel.php(584): CodeIgniter\Model->doFindAll(0, 0)
#4 /var/www/html/app/Controllers/Pegawai.php(18): CodeIgniter\BaseModel->findAll()
#5 /var/www/html/vendor/codeigniter4/framework/system/CodeIgniter.php(802): App\Controllers\Pegawai->index()
#6 /var/www/html/vendor/codeigniter4/framework/system/CodeIgniter.php(399): CodeIgniter\CodeIgniter->runController(Object(App\Controllers\Pegawai))
#7 /var/www/html/vendor/codeigniter4/framework/system/CodeIgniter.php(317): CodeIgniter\CodeIgniter->handleRequest(NULL, Object(Config\Cache), false)
#8 /var/www/html/public/index.php(37): CodeIgniter\CodeIgniter->run()
#9 {main}
ERROR - 2021-11-16 22:11:47 --> Error connecting to the database: Connection refused
CRITICAL - 2021-11-16 22:11:47 --> Unable to connect to the database.
Main connection [MySQLi]: Connection refused
#0 /var/www/html/vendor/codeigniter4/framework/system/Database/BaseConnection.php(570): CodeIgniter\Database\BaseConnection->initialize()
#1 /var/www/html/vendor/codeigniter4/framework/system/Database/BaseBuilder.php(1428): CodeIgniter\Database\BaseConnection->query('SELECT *\nFROM `...', Array, false)
#2 /var/www/html/vendor/codeigniter4/framework/system/Model.php(183): CodeIgniter\Database\BaseBuilder->get()
#3 /var/www/html/vendor/codeigniter4/framework/system/BaseModel.php(584): CodeIgniter\Model->doFindAll(0, 0)
#4 /var/www/html/app/Controllers/Pegawai.php(18): CodeIgniter\BaseModel->findAll()
#5 /var/www/html/vendor/codeigniter4/framework/system/CodeIgniter.php(802): App\Controllers\Pegawai->index()
#6 /var/www/html/vendor/codeigniter4/framework/system/CodeIgniter.php(399): CodeIgniter\CodeIgniter->runController(Object(App\Controllers\Pegawai))
#7 /var/www/html/vendor/codeigniter4/framework/system/CodeIgniter.php(317): CodeIgniter\CodeIgniter->handleRequest(NULL, Object(Config\Cache), false)
#8 /var/www/html/public/index.php(37): CodeIgniter\CodeIgniter->run()
#9 {main}
